<svg xmlns="http://www.w3.org/2000/svg" width="33" height="29" viewBox="0 0 33 29">
    <path fill="#4DD0E1" d="M0 25c3.504.332 7.005-.662 9.813-2.785-.851-.043-1.688-.237-2.471-.572-1.632-.718-2.93-2.03-3.631-3.669-.177-.393-.118-.553.369-.512.694.087 1.398.045 2.077-.122-.877-.348-1.705-.807-2.465-1.366-1.469-1.18-2.394-2.907-2.561-4.784-.072-.591.044-.66.584-.432.672.302 1.388.495 2.121.572.028-.274-.182-.317-.295-.419-2.299-2.002-3.002-5.28-1.728-8.05.294-.61.325-.628.764-.126 2.107 2.423 4.781 4.285 7.784 5.42 1.67.623 3.417 1.018 5.193 1.172.461.044.575-.133.526-.566-.253-1.909.308-3.836 1.545-5.311 1.238-1.475 3.04-2.362 4.963-2.444 1.808-.116 3.582.524 4.9 1.767.243.274.626.376.974.261 1.067-.282 2.103-.67 3.092-1.16.186-.144.416-.217.651-.205-.483 1.4-1.385 2.616-2.585 3.484.59-.014 1.176-.121 1.733-.319.535-.157 1.062-.343 1.628-.528.06.267-.118.413-.235.567-.687.938-1.502 1.776-2.421 2.489-.373.263-.572.709-.517 1.162.007 2.876-.624 5.718-1.847 8.321-2.225 5.159-6.679 9.024-12.1 10.5-5.281 1.554-10.974.8-15.668-2.077C.079 25.228.002 25.121 0 25z"/>
</svg>
